%YAML 1.1
%TAG !u! tag:unity3d.com,2011:
--- !u!114 &11400000
MonoBehaviour:
  m_ObjectHideFlags: 0
  m_CorrespondingSourceObject: {fileID: 0}
  m_PrefabInstance: {fileID: 0}
  m_PrefabAsset: {fileID: 0}
  m_GameObject: {fileID: 0}
  m_Enabled: 1
  m_EditorHideFlags: 0
  m_Script: {fileID: 11500000, guid: 4f11136daadff0b44ac2278a314682ab, type: 3}
  m_Name: ObjSwitchToggle
  m_EditorClassIdentifier: 
  serializedUdonProgramAsset: {fileID: 11400000, guid: 58a44658e9d3b8448b01cd6526eb3f78,
    type: 2}
  udonAssembly: ".data_start\r\n\r\n    .export objToSwitch\r\n    \r\n    instance_0:
    %UnityEngineGameObject, this\r\n    value_0: %SystemBoolean, null\r\n    Boolean_0:
    %SystemBoolean, null\r\n    instance_1: %UnityEngineGameObject, this\r\n    objToSwitch:
    %UnityEngineGameObject, this\r\n\r\n.data_end\r\n\r\n.code_start\r\n\r\n    .export
    _interact\r\n    \r\n    _interact:\r\n    \r\n        PUSH, objToSwitch\r\n        PUSH,
    instance_0\r\n        COPY\r\n        PUSH, objToSwitch\r\n        PUSH, instance_1\r\n
    \       COPY\r\n        PUSH, instance_1\r\n        PUSH, Boolean_0\r\n        EXTERN,
    \"UnityEngineGameObject.__get_activeSelf__SystemBoolean\"\r\n        PUSH, Boolean_0\r\n
    \       PUSH, value_0\r\n        EXTERN, \"SystemBoolean.__op_UnaryNegation__SystemBoolean__SystemBoolean\"\r\n
    \       PUSH, instance_0\r\n        PUSH, value_0\r\n        EXTERN, \"UnityEngineGameObject.__SetActive__SystemBoolean__SystemVoid\"\r\n
    \       JUMP, 0xFFFFFFFC\r\n    \r\n\r\n.code_end\r\n"
  assemblyError: 
  graphData:
    name: 
    description: 
    nodes:
    - fullName: Variable_UnityEngineGameObject
      uid: b70411f5-f650-4f8b-8e96-b972a3445668
      position: {x: -792, y: -648}
      nodeUIDs:
      - 
      - 
      - 
      - 
      - 
      flowUIDs: []
      nodeValues:
      - unityObjectValue: {fileID: 0}
        stringValue: 
      - unityObjectValue: {fileID: 0}
        stringValue: System.String, mscorlib, Version=4.0.0.0, Culture=neutral, PublicKeyToken=b77a5c561934e089|objToSwitch
      - unityObjectValue: {fileID: 0}
        stringValue: System.Boolean, mscorlib, Version=4.0.0.0, Culture=neutral, PublicKeyToken=b77a5c561934e089|True
      - unityObjectValue: {fileID: 0}
        stringValue: System.Boolean, mscorlib, Version=4.0.0.0, Culture=neutral, PublicKeyToken=b77a5c561934e089|False
      - unityObjectValue: {fileID: 0}
        stringValue: 
    - fullName: Get_Variable
      uid: 22fa2aef-8396-4514-af23-da94568f53bb
      position: {x: -828, y: -480}
      nodeUIDs:
      - 
      flowUIDs: []
      nodeValues:
      - unityObjectValue: {fileID: 0}
        stringValue: System.String, mscorlib, Version=4.0.0.0, Culture=neutral, PublicKeyToken=b77a5c561934e089|b70411f5-f650-4f8b-8e96-b972a3445668
    - fullName: UnityEngineGameObject.__SetActive__SystemBoolean__SystemVoid
      uid: 862f0d79-b6eb-4bc7-9346-a1600e4b49f4
      position: {x: 216, y: -516}
      nodeUIDs:
      - 22fa2aef-8396-4514-af23-da94568f53bb|0
      - fe95b70a-87dd-4992-8b50-b8d7ea506054|0
      flowUIDs:
      - 
      nodeValues:
      - unityObjectValue: {fileID: 0}
        stringValue: 
      - unityObjectValue: {fileID: 0}
        stringValue: 
    - fullName: Event_Interact
      uid: 31759a23-9f95-428a-8e82-37259f34a113
      position: {x: 48, y: -636}
      nodeUIDs: []
      flowUIDs:
      - 862f0d79-b6eb-4bc7-9346-a1600e4b49f4
      nodeValues: []
    - fullName: UnityEngineGameObject.__get_activeSelf__SystemBoolean
      uid: 19274c04-de56-472d-8eaa-f10821d75808
      position: {x: -492, y: -300}
      nodeUIDs:
      - 22fa2aef-8396-4514-af23-da94568f53bb|0
      flowUIDs: []
      nodeValues:
      - unityObjectValue: {fileID: 0}
        stringValue: 
    - fullName: SystemBoolean.__op_UnaryNegation__SystemBoolean__SystemBoolean
      uid: fe95b70a-87dd-4992-8b50-b8d7ea506054
      position: {x: -108, y: -300}
      nodeUIDs:
      - 19274c04-de56-472d-8eaa-f10821d75808|0
      flowUIDs: []
      nodeValues:
      - unityObjectValue: {fileID: 0}
        stringValue: 
  showAssembly: 0
