%YAML 1.1
%TAG !u! tag:unity3d.com,2011:
--- !u!114 &11400000
MonoBehaviour:
  m_ObjectHideFlags: 0
  m_CorrespondingSourceObject: {fileID: 0}
  m_PrefabInstance: {fileID: 0}
  m_PrefabAsset: {fileID: 0}
  m_GameObject: {fileID: 0}
  m_Enabled: 1
  m_EditorHideFlags: 0
  m_Script: {fileID: 11500000, guid: 4f11136daadff0b44ac2278a314682ab, type: 3}
  m_Name: SetJump
  m_EditorClassIdentifier: 
  serializedUdonProgramAsset: {fileID: 11400000, guid: ecba3e2dc551065449ac781cbd078817,
    type: 2}
  udonAssembly: ".data_start\r\n\r\n    \r\n    instance_0: %VRCSDKBaseVRCPlayerApi,
    null\r\n    impulse_0: %SystemSingle, null\r\n    onPlayerJoinedPlayer: %VRCSDKBaseVRCPlayerApi,
    null\r\n\r\n.data_end\r\n\r\n.code_start\r\n\r\n    .export _onPlayerJoined\r\n
    \   \r\n    _onPlayerJoined:\r\n    \r\n        PUSH, onPlayerJoinedPlayer\r\n
    \       PUSH, instance_0\r\n        COPY\r\n        PUSH, instance_0\r\n        PUSH,
    impulse_0\r\n        EXTERN, \"VRCSDKBaseVRCPlayerApi.__SetJumpImpulse__SystemSingle__SystemVoid\"\r\n
    \       JUMP, 0xFFFFFFFC\r\n    \r\n\r\n.code_end\r\n"
  assemblyError: 
  graphData:
    name: 
    description: 
    nodes:
    - fullName: Event_OnPlayerJoined
      uid: fef1acfb-c75d-4fd9-aa98-bbea8c761e20
      position: {x: -420, y: -516}
      nodeUIDs: []
      flowUIDs:
      - c414af18-2cc7-4ca4-8f12-9aa3b067479b
      nodeValues: []
    - fullName: VRCSDKBaseVRCPlayerApi.__SetJumpImpulse__SystemSingle__SystemVoid
      uid: c414af18-2cc7-4ca4-8f12-9aa3b067479b
      position: {x: -204, y: -456}
      nodeUIDs:
      - fef1acfb-c75d-4fd9-aa98-bbea8c761e20|0
      - 
      flowUIDs: []
      nodeValues:
      - unityObjectValue: {fileID: 0}
        stringValue: 
      - unityObjectValue: {fileID: 0}
        stringValue: System.Single, mscorlib, Version=4.0.0.0, Culture=neutral, PublicKeyToken=b77a5c561934e089|4
    - fullName: VRCSDKBaseNetworking.__get_LocalPlayer__VRCSDKBaseVRCPlayerApi
      uid: 0406ee5e-14e8-4f23-aa45-a109e6614749
      position: {x: -492, y: -396}
      nodeUIDs: []
      flowUIDs: []
      nodeValues: []
  showAssembly: 0
