%YAML 1.1
%TAG !u! tag:unity3d.com,2011:
--- !u!114 &11400000
MonoBehaviour:
  m_ObjectHideFlags: 0
  m_CorrespondingSourceObject: {fileID: 0}
  m_PrefabInstance: {fileID: 0}
  m_PrefabAsset: {fileID: 0}
  m_GameObject: {fileID: 0}
  m_Enabled: 1
  m_EditorHideFlags: 0
  m_Script: {fileID: 11500000, guid: c333ccfdd0cbdbc4ca30cef2dd6e6b9b, type: 3}
  m_Name: SpinningCubes_2
  m_EditorClassIdentifier: 
  serializedUdonProgramAsset: {fileID: 11400000, guid: f0302f952200e504c8e74aacf43a4bc5,
    type: 2}
  udonAssembly: ".data_start\r\n\r\n\r\n    __refl_const_intnl_udonTypeID: %SystemInt64,
    null\r\n    __refl_const_intnl_udonTypeName: %SystemString, null\r\n    __0_this_intnl_UnityEngineTransform:
    %UnityEngineTransform, this\r\n    __0_const_intnl_SystemSingle: %SystemSingle,
    null\r\n    __0_const_intnl_SystemUInt32: %SystemUInt32, null\r\n    __0_intnl_SystemSingle:
    %SystemSingle, null\r\n    __1_intnl_SystemSingle: %SystemSingle, null\r\n    __0_intnl_returnTarget_UInt32:
    %SystemUInt32, null\r\n    __0_intnl_UnityEngineVector3: %UnityEngineVector3,
    null\r\n\r\n.data_end\r\n\r\n        \r\n         # using UnityEngine;\r\n        \r\n
    \        # using VRC.SDK3.Components;\r\n        \r\n         # using VRC.SDKBase;\r\n
    \       \r\n         # using VRC.Udon;\r\n        \r\n         # namespace UdonSharp.Examples.Tutorials\r\n
    \       \r\n         # [AddComponentMenu(\"Udon Sharp/Tutorials/Spinning Cubes
    2\")]\r\n        \r\n         # public class SpinningCubes_2 : UdonSharpBehaviour\r\n.code_start\r\n
    \       \r\n         # private void Update()\r\n    .export _update\r\n        \r\n
    \   _update:\r\n        \r\n        PUSH, __0_const_intnl_SystemUInt32\r\n        \r\n
    \        # {\r\n        \r\n         # transform.Rotate(Vector3.up, 60f * Time.deltaTime);\r\n
    \       PUSH, __0_intnl_UnityEngineVector3\r\n        EXTERN, \"UnityEngineVector3.__get_up__UnityEngineVector3\"\r\n
    \       PUSH, __0_intnl_SystemSingle\r\n        EXTERN, \"UnityEngineTime.__get_deltaTime__SystemSingle\"\r\n
    \       PUSH, __0_const_intnl_SystemSingle\r\n        PUSH, __0_intnl_SystemSingle\r\n
    \       PUSH, __1_intnl_SystemSingle\r\n        EXTERN, \"SystemSingle.__op_Multiplication__SystemSingle_SystemSingle__SystemSingle\"\r\n
    \       PUSH, __0_this_intnl_UnityEngineTransform\r\n        PUSH, __0_intnl_UnityEngineVector3\r\n
    \       PUSH, __1_intnl_SystemSingle\r\n        EXTERN, \"UnityEngineTransform.__Rotate__UnityEngineVector3_SystemSingle__SystemVoid\"\r\n
    \       PUSH, __0_intnl_returnTarget_UInt32 #Function epilogue\r\n        COPY\r\n
    \       JUMP_INDIRECT, __0_intnl_returnTarget_UInt32\r\n        \r\n.code_end\r\n"
  assemblyError: 
  sourceCsScript: {fileID: 11500000, guid: f7f943065a75d07418852a498c42dd1a, type: 3}
  behaviourIDHeapVarName: __refl_const_intnl_udonTypeID
  compileErrors: []
  debugInfo:
    serializedDebugSpans:
    - startInstruction: 0
      endInstruction: -1
      startSourceChar: 0
      endSourceChar: 2
      line: 0
      lineChar: 0
      spanCodeSection: "\r\n"
    - startInstruction: 0
      endInstruction: -1
      startSourceChar: 2
      endSourceChar: 2
      line: 1
      lineChar: 0
      spanCodeSection: 
    - startInstruction: 0
      endInstruction: -1
      startSourceChar: 2
      endSourceChar: 8
      line: 1
      lineChar: 0
      spanCodeSection: 'using '
    - startInstruction: 0
      endInstruction: -1
      startSourceChar: 8
      endSourceChar: 22
      line: 1
      lineChar: 6
      spanCodeSection: "UnityEngine;\r\n"
    - startInstruction: 0
      endInstruction: -1
      startSourceChar: 22
      endSourceChar: 28
      line: 2
      lineChar: 0
      spanCodeSection: 'using '
    - startInstruction: 0
      endInstruction: -1
      startSourceChar: 28
      endSourceChar: 28
      line: 2
      lineChar: 6
      spanCodeSection: 
    - startInstruction: 0
      endInstruction: -1
      startSourceChar: 28
      endSourceChar: 28
      line: 2
      lineChar: 6
      spanCodeSection: 
    - startInstruction: 0
      endInstruction: -1
      startSourceChar: 28
      endSourceChar: 32
      line: 2
      lineChar: 6
      spanCodeSection: VRC.
    - startInstruction: 0
      endInstruction: -1
      startSourceChar: 32
      endSourceChar: 37
      line: 2
      lineChar: 10
      spanCodeSection: SDK3.
    - startInstruction: 0
      endInstruction: -1
      startSourceChar: 37
      endSourceChar: 50
      line: 2
      lineChar: 15
      spanCodeSection: "Components;\r\n"
    - startInstruction: 0
      endInstruction: -1
      startSourceChar: 50
      endSourceChar: 56
      line: 3
      lineChar: 0
      spanCodeSection: 'using '
    - startInstruction: 0
      endInstruction: -1
      startSourceChar: 56
      endSourceChar: 56
      line: 3
      lineChar: 6
      spanCodeSection: 
    - startInstruction: 0
      endInstruction: -1
      startSourceChar: 56
      endSourceChar: 60
      line: 3
      lineChar: 6
      spanCodeSection: VRC.
    - startInstruction: 0
      endInstruction: -1
      startSourceChar: 60
      endSourceChar: 70
      line: 3
      lineChar: 10
      spanCodeSection: "SDKBase;\r\n"
    - startInstruction: 0
      endInstruction: -1
      startSourceChar: 70
      endSourceChar: 76
      line: 4
      lineChar: 0
      spanCodeSection: 'using '
    - startInstruction: 0
      endInstruction: -1
      startSourceChar: 76
      endSourceChar: 76
      line: 4
      lineChar: 6
      spanCodeSection: 
    - startInstruction: 0
      endInstruction: -1
      startSourceChar: 76
      endSourceChar: 80
      line: 4
      lineChar: 6
      spanCodeSection: VRC.
    - startInstruction: 0
      endInstruction: -1
      startSourceChar: 80
      endSourceChar: 89
      line: 4
      lineChar: 10
      spanCodeSection: "Udon;\r\n\r\n"
    - startInstruction: 0
      endInstruction: -1
      startSourceChar: 89
      endSourceChar: 289
      line: 6
      lineChar: 0
      spanCodeSection: "namespace UdonSharp.Examples.Tutorials\r\n{\r\n    /// <summary>\r\n
        \   /// U# implementation of the second Udon spinning cube example (https://www.youtube.com/watch?v=_pbf9hakP9E)\r\n
        \   /// </summary>\r\n    "
    - startInstruction: 0
      endInstruction: -1
      startSourceChar: 289
      endSourceChar: 383
      line: 11
      lineChar: 4
      spanCodeSection: "[AddComponentMenu(\"Udon Sharp/Tutorials/Spinning Cubes 2\")]\r\n
        \   public class SpinningCubes_2 "
    - startInstruction: 0
      endInstruction: -1
      startSourceChar: 383
      endSourceChar: 385
      line: 12
      lineChar: 33
      spanCodeSection: ': '
    - startInstruction: 0
      endInstruction: -1
      startSourceChar: 385
      endSourceChar: 385
      line: 12
      lineChar: 35
      spanCodeSection: 
    - startInstruction: 0
      endInstruction: -1
      startSourceChar: 385
      endSourceChar: 421
      line: 12
      lineChar: 35
      spanCodeSection: "UdonSharpBehaviour \r\n    {\r\n        "
    - startInstruction: 0
      endInstruction: 7
      startSourceChar: 421
      endSourceChar: 452
      line: 14
      lineChar: 8
      spanCodeSection: "private void Update()\r\n        "
    - startInstruction: 8
      endInstruction: 7
      startSourceChar: 452
      endSourceChar: 467
      line: 15
      lineChar: 8
      spanCodeSection: "{\r\n            "
    - startInstruction: 8
      endInstruction: 7
      startSourceChar: 467
      endSourceChar: 467
      line: 16
      lineChar: 12
      spanCodeSection: 
    - startInstruction: 8
      endInstruction: 7
      startSourceChar: 467
      endSourceChar: 467
      line: 16
      lineChar: 12
      spanCodeSection: 
    - startInstruction: 8
      endInstruction: 7
      startSourceChar: 467
      endSourceChar: 467
      line: 16
      lineChar: 12
      spanCodeSection: 
    - startInstruction: 8
      endInstruction: 7
      startSourceChar: 467
      endSourceChar: 477
      line: 16
      lineChar: 12
      spanCodeSection: transform.
    - startInstruction: 8
      endInstruction: 7
      startSourceChar: 477
      endSourceChar: 484
      line: 16
      lineChar: 22
      spanCodeSection: Rotate(
    - startInstruction: 8
      endInstruction: 7
      startSourceChar: 484
      endSourceChar: 484
      line: 16
      lineChar: 29
      spanCodeSection: 
    - startInstruction: 8
      endInstruction: 7
      startSourceChar: 484
      endSourceChar: 492
      line: 16
      lineChar: 29
      spanCodeSection: Vector3.
    - startInstruction: 8
      endInstruction: 23
      startSourceChar: 492
      endSourceChar: 496
      line: 16
      lineChar: 37
      spanCodeSection: 'up, '
    - startInstruction: 24
      endInstruction: 23
      startSourceChar: 496
      endSourceChar: 496
      line: 16
      lineChar: 41
      spanCodeSection: 
    - startInstruction: 24
      endInstruction: 23
      startSourceChar: 496
      endSourceChar: 502
      line: 16
      lineChar: 41
      spanCodeSection: '60f * '
    - startInstruction: 24
      endInstruction: 23
      startSourceChar: 502
      endSourceChar: 502
      line: 16
      lineChar: 47
      spanCodeSection: 
    - startInstruction: 24
      endInstruction: 23
      startSourceChar: 502
      endSourceChar: 507
      line: 16
      lineChar: 47
      spanCodeSection: Time.
    - startInstruction: 24
      endInstruction: 24
      startSourceChar: 507
      endSourceChar: 507
      line: 16
      lineChar: 52
      spanCodeSection: 
  hasInteractEvent: 0
  serializationData:
    SerializedFormat: 2
    SerializedBytes: 
    ReferencedUnityObjects: []
    SerializedBytesString: 
    Prefab: {fileID: 0}
    PrefabModificationsReferencedUnityObjects: []
    PrefabModifications: []
    SerializationNodes:
    - Name: fieldDefinitions
      Entry: 7
      Data: 0|System.Collections.Generic.Dictionary`2[[System.String, mscorlib],[UdonSharp.FieldDefinition,
        UdonSharp.Editor]], mscorlib
    - Name: comparer
      Entry: 7
      Data: 1|System.Collections.Generic.GenericEqualityComparer`1[[System.String,
        mscorlib]], mscorlib
    - Name: 
      Entry: 8
      Data: 
    - Name: 
      Entry: 12
      Data: 0
    - Name: 
      Entry: 13
      Data: 
    - Name: 
      Entry: 8
      Data: 
