%YAML 1.1
%TAG !u! tag:unity3d.com,2011:
--- !u!114 &11400000
MonoBehaviour:
  m_ObjectHideFlags: 0
  m_CorrespondingSourceObject: {fileID: 0}
  m_PrefabInstance: {fileID: 0}
  m_PrefabAsset: {fileID: 0}
  m_GameObject: {fileID: 0}
  m_Enabled: 1
  m_EditorHideFlags: 0
  m_Script: {fileID: 11500000, guid: c333ccfdd0cbdbc4ca30cef2dd6e6b9b, type: 3}
  m_Name: SpinningCubes_5_Dependent
  m_EditorClassIdentifier: 
  serializedUdonProgramAsset: {fileID: 11400000, guid: cf4b21546dbad1e4e8974d0979456019,
    type: 2}
  udonAssembly: ".data_start\r\n\r\n\r\n    __refl_const_intnl_udonTypeID: %SystemInt64,
    null\r\n    __refl_const_intnl_udonTypeName: %SystemString, null\r\n    isRotating:
    %SystemBoolean, null\r\n    __0_this_intnl_UnityEngineTransform: %UnityEngineTransform,
    this\r\n    __0_const_intnl_SystemSingle: %SystemSingle, null\r\n    __0_const_intnl_SystemUInt32:
    %SystemUInt32, null\r\n    __0_intnl_SystemSingle: %SystemSingle, null\r\n    __1_intnl_SystemSingle:
    %SystemSingle, null\r\n    __0_intnl_returnTarget_UInt32: %SystemUInt32, null\r\n
    \   __0_intnl_UnityEngineVector3: %UnityEngineVector3, null\r\n\r\n.data_end\r\n\r\n
    \       \r\n         # using UnityEngine;\r\n        \r\n         # using VRC.SDK3.Components;\r\n
    \       \r\n         # using VRC.SDKBase;\r\n        \r\n         # using VRC.Udon;\r\n
    \       \r\n         # namespace UdonSharp.Examples.Tutorials\r\n        \r\n
    \        # [AddComponentMenu(\"Udon Sharp/Tutorials/Spinning Cubes 5 Dependent\")]\r\n
    \       \r\n         # public class SpinningCubes_5_Dependent : UdonSharpBehaviour\r\n.code_start\r\n
    \       \r\n         # bool isRotating = false;\r\n        \r\n         # public
    void DoRotate()\r\n    .export DoRotate\r\n        \r\n    DoRotate:\r\n        \r\n
    \       PUSH, __0_const_intnl_SystemUInt32\r\n        \r\n         # {\r\n        \r\n
    \        # isRotating = !isRotating;\r\n        PUSH, isRotating\r\n        PUSH,
    isRotating\r\n        EXTERN, \"SystemBoolean.__op_UnaryNegation__SystemBoolean__SystemBoolean\"\r\n
    \       PUSH, __0_intnl_returnTarget_UInt32 #Function epilogue\r\n        COPY\r\n
    \       JUMP_INDIRECT, __0_intnl_returnTarget_UInt32\r\n        \r\n        \r\n
    \        # private void Update()\r\n    .export _update\r\n        \r\n    _update:\r\n
    \       \r\n        PUSH, __0_const_intnl_SystemUInt32\r\n        \r\n         #
    {\r\n        \r\n         # if (isRotating)\r\n        PUSH, isRotating\r\n        JUMP_IF_FALSE,
    0x000000AC\r\n        \r\n         # transform.Rotate(Vector3.up, 60f * Time.deltaTime);\r\n
    \       PUSH, __0_intnl_UnityEngineVector3\r\n        EXTERN, \"UnityEngineVector3.__get_up__UnityEngineVector3\"\r\n
    \       PUSH, __0_intnl_SystemSingle\r\n        EXTERN, \"UnityEngineTime.__get_deltaTime__SystemSingle\"\r\n
    \       PUSH, __0_const_intnl_SystemSingle\r\n        PUSH, __0_intnl_SystemSingle\r\n
    \       PUSH, __1_intnl_SystemSingle\r\n        EXTERN, \"SystemSingle.__op_Multiplication__SystemSingle_SystemSingle__SystemSingle\"\r\n
    \       PUSH, __0_this_intnl_UnityEngineTransform\r\n        PUSH, __0_intnl_UnityEngineVector3\r\n
    \       PUSH, __1_intnl_SystemSingle\r\n        EXTERN, \"UnityEngineTransform.__Rotate__UnityEngineVector3_SystemSingle__SystemVoid\"\r\n
    \       PUSH, __0_intnl_returnTarget_UInt32 #Function epilogue\r\n        COPY\r\n
    \       JUMP_INDIRECT, __0_intnl_returnTarget_UInt32\r\n        \r\n.code_end\r\n"
  assemblyError: 
  sourceCsScript: {fileID: 11500000, guid: e40437867f5420847b3fafdcba5cb354, type: 3}
  behaviourIDHeapVarName: __refl_const_intnl_udonTypeID
  compileErrors: []
  debugInfo:
    serializedDebugSpans:
    - startInstruction: 0
      endInstruction: -1
      startSourceChar: 0
      endSourceChar: 2
      line: 0
      lineChar: 0
      spanCodeSection: "\r\n"
    - startInstruction: 0
      endInstruction: -1
      startSourceChar: 2
      endSourceChar: 2
      line: 1
      lineChar: 0
      spanCodeSection: 
    - startInstruction: 0
      endInstruction: -1
      startSourceChar: 2
      endSourceChar: 8
      line: 1
      lineChar: 0
      spanCodeSection: 'using '
    - startInstruction: 0
      endInstruction: -1
      startSourceChar: 8
      endSourceChar: 22
      line: 1
      lineChar: 6
      spanCodeSection: "UnityEngine;\r\n"
    - startInstruction: 0
      endInstruction: -1
      startSourceChar: 22
      endSourceChar: 28
      line: 2
      lineChar: 0
      spanCodeSection: 'using '
    - startInstruction: 0
      endInstruction: -1
      startSourceChar: 28
      endSourceChar: 28
      line: 2
      lineChar: 6
      spanCodeSection: 
    - startInstruction: 0
      endInstruction: -1
      startSourceChar: 28
      endSourceChar: 28
      line: 2
      lineChar: 6
      spanCodeSection: 
    - startInstruction: 0
      endInstruction: -1
      startSourceChar: 28
      endSourceChar: 32
      line: 2
      lineChar: 6
      spanCodeSection: VRC.
    - startInstruction: 0
      endInstruction: -1
      startSourceChar: 32
      endSourceChar: 37
      line: 2
      lineChar: 10
      spanCodeSection: SDK3.
    - startInstruction: 0
      endInstruction: -1
      startSourceChar: 37
      endSourceChar: 50
      line: 2
      lineChar: 15
      spanCodeSection: "Components;\r\n"
    - startInstruction: 0
      endInstruction: -1
      startSourceChar: 50
      endSourceChar: 56
      line: 3
      lineChar: 0
      spanCodeSection: 'using '
    - startInstruction: 0
      endInstruction: -1
      startSourceChar: 56
      endSourceChar: 56
      line: 3
      lineChar: 6
      spanCodeSection: 
    - startInstruction: 0
      endInstruction: -1
      startSourceChar: 56
      endSourceChar: 60
      line: 3
      lineChar: 6
      spanCodeSection: VRC.
    - startInstruction: 0
      endInstruction: -1
      startSourceChar: 60
      endSourceChar: 70
      line: 3
      lineChar: 10
      spanCodeSection: "SDKBase;\r\n"
    - startInstruction: 0
      endInstruction: -1
      startSourceChar: 70
      endSourceChar: 76
      line: 4
      lineChar: 0
      spanCodeSection: 'using '
    - startInstruction: 0
      endInstruction: -1
      startSourceChar: 76
      endSourceChar: 76
      line: 4
      lineChar: 6
      spanCodeSection: 
    - startInstruction: 0
      endInstruction: -1
      startSourceChar: 76
      endSourceChar: 80
      line: 4
      lineChar: 6
      spanCodeSection: VRC.
    - startInstruction: 0
      endInstruction: -1
      startSourceChar: 80
      endSourceChar: 89
      line: 4
      lineChar: 10
      spanCodeSection: "Udon;\r\n\r\n"
    - startInstruction: 0
      endInstruction: -1
      startSourceChar: 89
      endSourceChar: 288
      line: 6
      lineChar: 0
      spanCodeSection: "namespace UdonSharp.Examples.Tutorials\r\n{\r\n    /// <summary>\r\n
        \   /// U# implementation of the fifth Udon spinning cube example (https://www.youtube.com/watch?v=tgbGetGdwiU)\r\n
        \   /// </summary>\r\n    "
    - startInstruction: 0
      endInstruction: -1
      startSourceChar: 288
      endSourceChar: 402
      line: 11
      lineChar: 4
      spanCodeSection: "[AddComponentMenu(\"Udon Sharp/Tutorials/Spinning Cubes 5
        Dependent\")]\r\n    public class SpinningCubes_5_Dependent "
    - startInstruction: 0
      endInstruction: -1
      startSourceChar: 402
      endSourceChar: 404
      line: 12
      lineChar: 43
      spanCodeSection: ': '
    - startInstruction: 0
      endInstruction: -1
      startSourceChar: 404
      endSourceChar: 404
      line: 12
      lineChar: 45
      spanCodeSection: 
    - startInstruction: 0
      endInstruction: -1
      startSourceChar: 404
      endSourceChar: 440
      line: 12
      lineChar: 45
      spanCodeSection: "UdonSharpBehaviour \r\n    {\r\n        "
    - startInstruction: 0
      endInstruction: -1
      startSourceChar: 440
      endSourceChar: 440
      line: 14
      lineChar: 8
      spanCodeSection: 
    - startInstruction: 0
      endInstruction: -1
      startSourceChar: 440
      endSourceChar: 440
      line: 14
      lineChar: 8
      spanCodeSection: 
    - startInstruction: 0
      endInstruction: -1
      startSourceChar: 440
      endSourceChar: 476
      line: 14
      lineChar: 8
      spanCodeSection: "bool isRotating = false;\r\n\r\n        "
    - startInstruction: 0
      endInstruction: 7
      startSourceChar: 476
      endSourceChar: 508
      line: 16
      lineChar: 8
      spanCodeSection: "public void DoRotate()\r\n        "
    - startInstruction: 8
      endInstruction: 7
      startSourceChar: 508
      endSourceChar: 523
      line: 17
      lineChar: 8
      spanCodeSection: "{\r\n            "
    - startInstruction: 8
      endInstruction: 7
      startSourceChar: 523
      endSourceChar: 523
      line: 18
      lineChar: 12
      spanCodeSection: 
    - startInstruction: 8
      endInstruction: 7
      startSourceChar: 523
      endSourceChar: 523
      line: 18
      lineChar: 12
      spanCodeSection: 
    - startInstruction: 8
      endInstruction: 7
      startSourceChar: 523
      endSourceChar: 536
      line: 18
      lineChar: 12
      spanCodeSection: 'isRotating = '
    - startInstruction: 8
      endInstruction: 7
      startSourceChar: 536
      endSourceChar: 537
      line: 18
      lineChar: 25
      spanCodeSection: '!'
    - startInstruction: 8
      endInstruction: 51
      startSourceChar: 537
      endSourceChar: 571
      line: 18
      lineChar: 26
      spanCodeSection: "isRotating;\r\n        }\r\n\r\n        "
    - startInstruction: 52
      endInstruction: 59
      startSourceChar: 571
      endSourceChar: 602
      line: 21
      lineChar: 8
      spanCodeSection: "private void Update()\r\n        "
    - startInstruction: 60
      endInstruction: 59
      startSourceChar: 602
      endSourceChar: 617
      line: 22
      lineChar: 8
      spanCodeSection: "{\r\n            "
    - startInstruction: 60
      endInstruction: 59
      startSourceChar: 617
      endSourceChar: 621
      line: 23
      lineChar: 12
      spanCodeSection: if (
    - startInstruction: 60
      endInstruction: 75
      startSourceChar: 621
      endSourceChar: 650
      line: 23
      lineChar: 16
      spanCodeSection: "isRotating)\r\n                "
    - startInstruction: 76
      endInstruction: 75
      startSourceChar: 650
      endSourceChar: 650
      line: 24
      lineChar: 16
      spanCodeSection: 
    - startInstruction: 76
      endInstruction: 75
      startSourceChar: 650
      endSourceChar: 650
      line: 24
      lineChar: 16
      spanCodeSection: 
    - startInstruction: 76
      endInstruction: 75
      startSourceChar: 650
      endSourceChar: 650
      line: 24
      lineChar: 16
      spanCodeSection: 
    - startInstruction: 76
      endInstruction: 75
      startSourceChar: 650
      endSourceChar: 660
      line: 24
      lineChar: 16
      spanCodeSection: transform.
    - startInstruction: 76
      endInstruction: 75
      startSourceChar: 660
      endSourceChar: 667
      line: 24
      lineChar: 26
      spanCodeSection: Rotate(
    - startInstruction: 76
      endInstruction: 75
      startSourceChar: 667
      endSourceChar: 667
      line: 24
      lineChar: 33
      spanCodeSection: 
    - startInstruction: 76
      endInstruction: 75
      startSourceChar: 667
      endSourceChar: 675
      line: 24
      lineChar: 33
      spanCodeSection: Vector3.
    - startInstruction: 76
      endInstruction: 91
      startSourceChar: 675
      endSourceChar: 679
      line: 24
      lineChar: 41
      spanCodeSection: 'up, '
    - startInstruction: 92
      endInstruction: 91
      startSourceChar: 679
      endSourceChar: 679
      line: 24
      lineChar: 45
      spanCodeSection: 
    - startInstruction: 92
      endInstruction: 91
      startSourceChar: 679
      endSourceChar: 685
      line: 24
      lineChar: 45
      spanCodeSection: '60f * '
    - startInstruction: 92
      endInstruction: 91
      startSourceChar: 685
      endSourceChar: 685
      line: 24
      lineChar: 51
      spanCodeSection: 
    - startInstruction: 92
      endInstruction: 91
      startSourceChar: 685
      endSourceChar: 690
      line: 24
      lineChar: 51
      spanCodeSection: Time.
    - startInstruction: 92
      endInstruction: 92
      startSourceChar: 690
      endSourceChar: 690
      line: 24
      lineChar: 56
      spanCodeSection: 
  hasInteractEvent: 0
  serializationData:
    SerializedFormat: 2
    SerializedBytes: 
    ReferencedUnityObjects: []
    SerializedBytesString: 
    Prefab: {fileID: 0}
    PrefabModificationsReferencedUnityObjects: []
    PrefabModifications: []
    SerializationNodes:
    - Name: fieldDefinitions
      Entry: 7
      Data: 0|System.Collections.Generic.Dictionary`2[[System.String, mscorlib],[UdonSharp.FieldDefinition,
        UdonSharp.Editor]], mscorlib
    - Name: comparer
      Entry: 7
      Data: 1|System.Collections.Generic.GenericEqualityComparer`1[[System.String,
        mscorlib]], mscorlib
    - Name: 
      Entry: 8
      Data: 
    - Name: 
      Entry: 12
      Data: 1
    - Name: 
      Entry: 7
      Data: 
    - Name: $k
      Entry: 1
      Data: isRotating
    - Name: $v
      Entry: 7
      Data: 2|UdonSharp.FieldDefinition, UdonSharp.Editor
    - Name: fieldSymbol
      Entry: 7
      Data: 3|UdonSharp.SymbolDefinition, UdonSharp.Editor
    - Name: internalType
      Entry: 7
      Data: 4|System.RuntimeType, mscorlib
    - Name: 
      Entry: 1
      Data: System.Boolean, mscorlib
    - Name: 
      Entry: 8
      Data: 
    - Name: declarationType
      Entry: 3
      Data: 2
    - Name: syncMode
      Entry: 3
      Data: 0
    - Name: symbolResolvedTypeName
      Entry: 1
      Data: SystemBoolean
    - Name: symbolOriginalName
      Entry: 1
      Data: isRotating
    - Name: symbolUniqueName
      Entry: 1
      Data: isRotating
    - Name: symbolDefaultValue
      Entry: 6
      Data: 
    - Name: 
      Entry: 8
      Data: 
    - Name: fieldAttributes
      Entry: 7
      Data: 5|System.Collections.Generic.List`1[[System.Attribute, mscorlib]], mscorlib
    - Name: 
      Entry: 12
      Data: 0
    - Name: 
      Entry: 13
      Data: 
    - Name: 
      Entry: 8
      Data: 
    - Name: userBehaviourSource
      Entry: 6
      Data: 
    - Name: 
      Entry: 8
      Data: 
    - Name: 
      Entry: 8
      Data: 
    - Name: 
      Entry: 13
      Data: 
    - Name: 
      Entry: 8
      Data: 
