%YAML 1.1
%TAG !u! tag:unity3d.com,2011:
--- !u!114 &11400000
MonoBehaviour:
  m_ObjectHideFlags: 0
  m_CorrespondingSourceObject: {fileID: 0}
  m_PrefabInstance: {fileID: 0}
  m_PrefabAsset: {fileID: 0}
  m_GameObject: {fileID: 0}
  m_Enabled: 1
  m_EditorHideFlags: 0
  m_Script: {fileID: 11500000, guid: 4f11136daadff0b44ac2278a314682ab, type: 3}
  m_Name: KeyPadClearButton
  m_EditorClassIdentifier: 
  serializedUdonProgramAsset: {fileID: 11400000, guid: f175ee90f7d6886459cd3a4338ddbe0a,
    type: 2}
  udonAssembly: ".data_start\r\n\r\n    .export storage\r\n    .export textField\r\n
    \   \r\n    instance_0: %VRCUdonUdonBehaviour, this\r\n    name_0: %SystemString,
    null\r\n    value_0: %SystemObject, null\r\n    instance_1: %UnityEngineUIText,
    null\r\n    value_1: %SystemString, null\r\n    String_0: %SystemString, null\r\n
    \   storage: %VRCUdonUdonBehaviour, this\r\n    textField: %UnityEngineUIText,
    null\r\n\r\n.data_end\r\n\r\n.code_start\r\n\r\n    .export _interact\r\n    \r\n
    \   _interact:\r\n    \r\n        PUSH, storage\r\n        PUSH, instance_0\r\n
    \       COPY\r\n        PUSH, String_0\r\n        PUSH, value_0\r\n        COPY\r\n
    \       PUSH, instance_0\r\n        PUSH, name_0\r\n        PUSH, value_0\r\n
    \       EXTERN, \"VRCUdonCommonInterfacesIUdonEventReceiver.__SetProgramVariable__SystemString_SystemObject__SystemVoid\"\r\n
    \       PUSH, textField\r\n        PUSH, instance_1\r\n        COPY\r\n        PUSH,
    String_0\r\n        PUSH, value_1\r\n        COPY\r\n        PUSH, instance_1\r\n
    \       PUSH, value_1\r\n        EXTERN, \"UnityEngineUIText.__set_text__SystemString__SystemVoid\"\r\n
    \       JUMP, 0xFFFFFFFC\r\n    \r\n\r\n.code_end\r\n"
  assemblyError: 
  graphData:
    name: 
    description: 
    nodes:
    - fullName: Event_Interact
      uid: 43f673bd-e40a-41f4-999c-40f05fa7ee42
      position: {x: 384, y: 240}
      nodeUIDs: []
      flowUIDs:
      - 3cb89803-a2b3-4216-a0a6-b46a903c6964
      nodeValues: []
    - fullName: Get_Variable
      uid: dd6c7514-dc0f-4302-a726-15495fe7c930
      position: {x: 252, y: 0}
      nodeUIDs:
      - 
      flowUIDs: []
      nodeValues:
      - unityObjectValue: {fileID: 0}
        stringValue: System.String, mscorlib, Version=4.0.0.0, Culture=neutral, PublicKeyToken=b77a5c561934e089|bf9e9c13-9491-441c-a9f4-608d2aea4f66
    - fullName: Variable_VRCUdonCommonInterfacesIUdonEventReceiver
      uid: 8c277cd5-c3d1-48bf-9af9-c061e563f0da
      position: {x: 348, y: -204}
      nodeUIDs:
      - 
      - 
      - 
      - 
      - 
      flowUIDs: []
      nodeValues:
      - unityObjectValue: {fileID: 0}
        stringValue: 
      - unityObjectValue: {fileID: 0}
        stringValue: System.String, mscorlib, Version=4.0.0.0, Culture=neutral, PublicKeyToken=b77a5c561934e089|storage
      - unityObjectValue: {fileID: 0}
        stringValue: System.Boolean, mscorlib, Version=4.0.0.0, Culture=neutral, PublicKeyToken=b77a5c561934e089|True
      - unityObjectValue: {fileID: 0}
        stringValue: System.Boolean, mscorlib, Version=4.0.0.0, Culture=neutral, PublicKeyToken=b77a5c561934e089|False
      - unityObjectValue: {fileID: 0}
        stringValue: 
    - fullName: Get_Variable
      uid: 23709c9f-9e81-47e4-9467-1f9b7b0fa7b8
      position: {x: 264, y: 360}
      nodeUIDs:
      - 
      flowUIDs: []
      nodeValues:
      - unityObjectValue: {fileID: 0}
        stringValue: System.String, mscorlib, Version=4.0.0.0, Culture=neutral, PublicKeyToken=b77a5c561934e089|8c277cd5-c3d1-48bf-9af9-c061e563f0da
    - fullName: VRCUdonCommonInterfacesIUdonEventReceiver.__SetProgramVariable__SystemString_SystemObject__SystemVoid
      uid: 3cb89803-a2b3-4216-a0a6-b46a903c6964
      position: {x: 720, y: 312}
      nodeUIDs:
      - 23709c9f-9e81-47e4-9467-1f9b7b0fa7b8|0
      - 
      - 0a1e0a12-61d8-4b40-8f24-3c7fd3e01f76|0
      flowUIDs:
      - 7ad9f2af-ac2d-4c86-ab7e-f066eca5cae0
      nodeValues:
      - unityObjectValue: {fileID: 0}
        stringValue: 
      - unityObjectValue: {fileID: 0}
        stringValue: System.String, mscorlib, Version=4.0.0.0, Culture=neutral, PublicKeyToken=b77a5c561934e089|keyPadValue
      - unityObjectValue: {fileID: 0}
        stringValue: 
    - fullName: UnityEngineUIText.__set_text__SystemString__SystemVoid
      uid: 7ad9f2af-ac2d-4c86-ab7e-f066eca5cae0
      position: {x: 1104, y: 24}
      nodeUIDs:
      - dd6c7514-dc0f-4302-a726-15495fe7c930|0
      - 0a1e0a12-61d8-4b40-8f24-3c7fd3e01f76|0
      flowUIDs: []
      nodeValues:
      - unityObjectValue: {fileID: 0}
        stringValue: 
      - unityObjectValue: {fileID: 0}
        stringValue: 
    - fullName: Const_SystemString
      uid: 0a1e0a12-61d8-4b40-8f24-3c7fd3e01f76
      position: {x: 252, y: 120}
      nodeUIDs:
      - 
      flowUIDs: []
      nodeValues:
      - unityObjectValue: {fileID: 0}
        stringValue: System.String, mscorlib, Version=4.0.0.0, Culture=neutral, PublicKeyToken=b77a5c561934e089|
    - fullName: Variable_UnityEngineUIText
      uid: bf9e9c13-9491-441c-a9f4-608d2aea4f66
      position: {x: 96, y: -204}
      nodeUIDs:
      - 
      - 
      - 
      - 
      - 
      flowUIDs: []
      nodeValues:
      - unityObjectValue: {fileID: 0}
        stringValue: 
      - unityObjectValue: {fileID: 0}
        stringValue: System.String, mscorlib, Version=4.0.0.0, Culture=neutral, PublicKeyToken=b77a5c561934e089|textField
      - unityObjectValue: {fileID: 0}
        stringValue: System.Boolean, mscorlib, Version=4.0.0.0, Culture=neutral, PublicKeyToken=b77a5c561934e089|True
      - unityObjectValue: {fileID: 0}
        stringValue: System.Boolean, mscorlib, Version=4.0.0.0, Culture=neutral, PublicKeyToken=b77a5c561934e089|False
      - unityObjectValue: {fileID: 0}
        stringValue: System.String, mscorlib, Version=4.0.0.0, Culture=neutral, PublicKeyToken=b77a5c561934e089|
  showAssembly: 0
